<?xml version="1.0" encoding="UTF-8" standalone="no"?>
<!-- Created with Inkscape (http://www.inkscape.org/) -->

<svg
   width="84.635971mm"
   height="8.8809996mm"
   viewBox="0 0 84.635971 8.8809996"
   version="1.1"
   id="svg11427"
   inkscape:version="1.1.1 (c3084ef, 2021-09-22)"
   sodipodi:docname="amsterdam-breed.svg"
   xmlns:inkscape="http://www.inkscape.org/namespaces/inkscape"
   xmlns:sodipodi="http://sodipodi.sourceforge.net/DTD/sodipodi-0.dtd"
   xmlns="http://www.w3.org/2000/svg"
   xmlns:svg="http://www.w3.org/2000/svg">
  <sodipodi:namedview
     id="namedview11429"
     pagecolor="#ffffff"
     bordercolor="#666666"
     borderopacity="1.0"
     inkscape:pageshadow="2"
     inkscape:pageopacity="0.0"
     inkscape:pagecheckerboard="0"
     inkscape:document-units="mm"
     showgrid="false"
     inkscape:zoom="0.64052329"
     inkscape:cx="624.48939"
     inkscape:cy="431.67829"
     inkscape:window-width="1003"
     inkscape:window-height="1147"
     inkscape:window-x="917"
     inkscape:window-y="25"
     inkscape:window-maximized="0"
     inkscape:current-layer="layer1"
     fit-margin-top="0"
     fit-margin-left="0"
     fit-margin-right="0"
     fit-margin-bottom="0" />
  <defs
     id="defs11424" />
  <g
     inkscape:label="Layer 1"
     inkscape:groupmode="layer"
     id="layer1"
     transform="translate(-5.1854876,-39.345395)">
    <path
       d="M 5.1854876,48.226395 H 89.821461 v -8.881 H 5.1854876 Z"
       style="fill:#ffff00;fill-opacity:1;fill-rule:nonzero;stroke:none;stroke-width:0.352782"
       id="path113" />
    <g
       aria-label="AMSTERDAM"
       id="text213"
       style="font-weight:800;font-size:5.66868px;stroke-width:0.352778"
       transform="matrix(1,0,0,1.0000194,0,-7.6222855e-4)">
      <path
         d="m 36.493282,45.333026 0.985376,-3.423905 q 0.09411,-0.321077 0.426258,-0.321077 h 0.786087 q 0.332149,0 0.426258,0.321077 l 0.985376,3.423905 q 0.04982,0.177147 -0.02491,0.25188 -0.07473,0.07197 -0.218665,0.07197 h -0.536975 q -0.146699,0 -0.229736,-0.07473 -0.08027,-0.07473 -0.127324,-0.254648 l -0.135629,-0.55359 H 37.72777 l -0.130092,0.553582 q -0.04152,0.179915 -0.124556,0.254648 -0.08304,0.07473 -0.232504,0.07473 h -0.50376 q -0.143931,0 -0.218665,-0.07197 -0.07473,-0.07473 -0.02491,-0.25188 z m 1.444849,-1.45592 h 0.67537 L 38.28412,42.49315 h -0.01107 z"
         id="path11492" />
      <path
         d="m 40.387356,45.321955 v -3.401762 q 0,-0.168843 0.09134,-0.249112 0.09411,-0.08304 0.243576,-0.08304 h 0.82207 q 0.146699,0 0.229736,0.07197 0.08581,0.07197 0.13286,0.249112 l 0.617244,2.341652 h 0.01107 l 0.647691,-2.341652 q 0.05259,-0.177146 0.135628,-0.249112 0.08581,-0.07197 0.232504,-0.07197 h 0.805462 q 0.1467,0 0.238041,0.08304 0.09411,0.08027 0.09411,0.249112 v 3.401762 q 0,0.202057 -0.08581,0.268487 -0.08581,0.06643 -0.246344,0.06643 H 44.00501 q -0.160539,0 -0.249112,-0.06643 -0.08581,-0.06643 -0.08581,-0.268487 v -2.23924 h -0.01107 l -0.589565,2.250311 q -0.04705,0.177147 -0.13286,0.25188 -0.08304,0.07197 -0.229736,0.07197 H 42.37194 q -0.1467,0 -0.232505,-0.07197 -0.08304,-0.07473 -0.130092,-0.25188 l -0.589564,-2.250311 h -0.01107 v 2.23924 q 0,0.202057 -0.08857,0.268487 -0.08581,0.06643 -0.246344,0.06643 H 40.72227 q -0.160539,0 -0.249112,-0.06643 -0.08581,-0.06643 -0.08581,-0.268487 z"
         id="path11494" />
      <path
         d="m 45.142471,44.920608 q -0.143931,-0.301703 0.177146,-0.404115 l 0.412419,-0.130092 q 0.08857,-0.02768 0.146699,-0.03045 0.06089,-0.0055 0.102413,0.02214 0.04152,0.02491 0.06089,0.04982 0.02214,0.02214 0.05813,0.08581 0.03875,0.06089 0.06366,0.09411 0.190986,0.260183 0.561886,0.260183 0.232504,0 0.379203,-0.09411 0.1467,-0.09411 0.1467,-0.268487 0,-0.116252 -0.07197,-0.202057 -0.07197,-0.08581 -0.196522,-0.138396 -0.121788,-0.05536 -0.282327,-0.09965 -0.15777,-0.04429 -0.334917,-0.09134 -0.174378,-0.04982 -0.351524,-0.110716 -0.174379,-0.06089 -0.334917,-0.157771 -0.157771,-0.09965 -0.282327,-0.229736 -0.121788,-0.130092 -0.193754,-0.33215 -0.07197,-0.204825 -0.07197,-0.462241 0,-0.509295 0.417955,-0.835909 0.417954,-0.326613 1.057342,-0.326613 0.503759,0 0.855284,0.160539 0.351524,0.157771 0.572957,0.509295 0.179914,0.290631 -0.141163,0.401347 l -0.307238,0.107949 q -0.08857,0.03045 -0.152235,0.04152 -0.06089,0.0083 -0.113485,-0.01384 -0.05259,-0.02214 -0.07473,-0.03598 -0.02214,-0.01661 -0.0775,-0.0775 -0.05536,-0.06089 -0.08027,-0.08304 -0.177146,-0.177146 -0.453937,-0.177146 -0.177147,0 -0.298935,0.09134 -0.121788,0.08857 -0.121788,0.232504 0,0.110717 0.0692,0.190986 0.07197,0.08027 0.190986,0.13286 0.11902,0.04982 0.274023,0.09411 0.155003,0.04152 0.326613,0.08857 0.171611,0.04429 0.343221,0.102413 0.171611,0.05813 0.326614,0.152235 0.155003,0.09411 0.274023,0.221433 0.11902,0.124556 0.188218,0.321077 0.07196,0.193754 0.07196,0.442866 0,0.62278 -0.445633,0.963233 -0.445634,0.340453 -1.181898,0.340453 -0.545278,0 -0.924482,-0.188218 -0.376436,-0.190986 -0.584029,-0.617244 z"
         id="path11496" />
      <path
         d="m 49.342372,45.321955 v -2.83434 h -0.683674 q -0.202058,0 -0.268488,-0.08581 -0.06643,-0.08857 -0.06643,-0.249112 v -0.232504 q 0,-0.160539 0.06643,-0.246344 0.06643,-0.08581 0.268488,-0.08581 h 2.474512 q 0.202057,0 0.268487,0.08581 0.06643,0.08581 0.06643,0.246344 v 0.232504 q 0,0.160539 -0.06643,0.249112 -0.06643,0.08581 -0.268487,0.08581 h -0.683674 v 2.83434 q 0,0.202057 -0.08857,0.268487 -0.08581,0.06643 -0.246344,0.06643 h -0.43733 q -0.160539,0 -0.249112,-0.0692 -0.08581,-0.0692 -0.08581,-0.265719 z"
         id="path11498" />
      <path
         d="m 51.729817,45.321955 v -3.401762 q 0,-0.168843 0.09134,-0.249112 0.09411,-0.08304 0.243576,-0.08304 h 2.186649 q 0.202057,0 0.268487,0.08581 0.06643,0.08581 0.06643,0.246344 v 0.232504 q 0,0.160539 -0.06643,0.249112 -0.06643,0.08581 -0.268487,0.08581 h -1.41717 v 0.653226 h 0.907874 q 0.202058,0 0.268488,0.08857 0.06643,0.0858 0.06643,0.246344 v 0.202057 q 0,0.160539 -0.06643,0.249112 -0.06643,0.08581 -0.268488,0.08581 h -0.907874 v 0.7418 h 1.453153 q 0.204825,0 0.268487,0.08581 0.06366,0.08304 0.06366,0.249112 v 0.232505 q 0,0.163306 -0.06643,0.249112 -0.06366,0.08581 -0.265719,0.08581 h -2.222632 q -0.146699,0 -0.240808,-0.08304 -0.09411,-0.08304 -0.09411,-0.251879 z"
         id="path11500" />
      <path
         d="m 54.93829,45.321955 v -3.401762 q 0,-0.168843 0.09134,-0.249112 0.09411,-0.08304 0.243576,-0.08304 h 1.228952 q 1.660746,0 1.660746,1.228952 0,0.365364 -0.163306,0.633851 -0.163307,0.26572 -0.453938,0.420723 l 0.669835,1.478064 q 0.05813,0.116252 0.03321,0.18545 -0.02491,0.0692 -0.08304,0.09688 -0.05536,0.02491 -0.143931,0.02491 h -0.600637 q -0.152235,0 -0.240808,-0.06643 -0.08857,-0.0692 -0.160539,-0.246344 l -0.459473,-1.154219 h -0.517599 v 1.132076 q 0,0.168842 -0.09411,0.251879 -0.09134,0.08304 -0.23804,0.08304 h -0.43733 q -0.146699,0 -0.240808,-0.08304 -0.09411,-0.08304 -0.09411,-0.251879 z m 1.104396,-1.995664 h 0.442866 q 0.561886,0 0.561886,-0.42349 0,-0.415186 -0.509296,-0.415186 h -0.495456 z"
         id="path11502" />
      <path
         d="m 58.583252,45.321955 v -3.401762 q 0,-0.168843 0.09134,-0.249112 0.09411,-0.08304 0.243576,-0.08304 h 1.115468 q 0.985376,0 1.49744,0.48992 0.514831,0.48992 0.514831,1.46976 0,1.013055 -0.539743,1.561102 -0.536974,0.548046 -1.516814,0.548046 h -1.071182 q -0.146699,0 -0.240808,-0.08304 -0.09411,-0.08304 -0.09411,-0.251879 z m 1.104396,-0.611709 h 0.351525 q 0.453937,0 0.678138,-0.296166 0.224201,-0.296166 0.224201,-0.833141 0,-1.04627 -0.86082,-1.04627 h -0.393044 z"
         id="path11504" />
      <path
         d="m 62.103244,45.333026 0.985376,-3.423905 q 0.09411,-0.321077 0.426259,-0.321077 h 0.786086 q 0.332149,0 0.426258,0.321077 l 0.985376,3.423905 q 0.04982,0.177147 -0.02491,0.25188 -0.07473,0.07197 -0.218665,0.07197 H 64.93205 q -0.1467,0 -0.229737,-0.07473 -0.08027,-0.07473 -0.127324,-0.254648 l -0.135628,-0.55359 H 63.337732 L 63.20764,45.32749 q -0.04152,0.179915 -0.124555,0.254648 -0.08304,0.07473 -0.232505,0.07473 h -0.50376 q -0.143931,0 -0.218665,-0.07197 -0.07473,-0.07473 -0.02491,-0.25188 z m 1.444849,-1.45592 h 0.675371 L 63.894082,42.49315 h -0.01107 z"
         id="path11506" />
      <path
         d="m 65.997315,45.321955 v -3.401762 q 0,-0.168843 0.09134,-0.249112 0.09411,-0.08304 0.243576,-0.08304 H 67.1543 q 0.146699,0 0.229737,0.07197 0.0858,0.07197 0.132859,0.249112 l 0.617244,2.341652 h 0.01107 l 0.647691,-2.341652 q 0.05259,-0.177146 0.135628,-0.249112 0.0858,-0.07197 0.232504,-0.07197 h 0.805462 q 0.146699,0 0.23804,0.08304 0.09411,0.08027 0.09411,0.249112 v 3.401762 q 0,0.202057 -0.08581,0.268487 -0.0858,0.06643 -0.246344,0.06643 h -0.351525 q -0.160538,0 -0.249112,-0.06643 -0.0858,-0.06643 -0.0858,-0.268487 v -2.23924 h -0.01107 l -0.589565,2.250311 q -0.04706,0.177147 -0.13286,0.25188 -0.08304,0.07197 -0.229737,0.07197 h -0.334917 q -0.146699,0 -0.232504,-0.07197 -0.08304,-0.07473 -0.130092,-0.25188 l -0.589565,-2.250311 h -0.01107 v 2.23924 q 0,0.202057 -0.08857,0.268487 -0.0858,0.06643 -0.246344,0.06643 h -0.351524 q -0.160539,0 -0.249112,-0.06643 -0.0858,-0.06643 -0.0858,-0.268487 z"
         id="path11508" />
    </g>
    <g
       id="g295"
       transform="matrix(0.35277777,0,0,-0.3527846,87.367891,46.832932)">
      <path
         d="m 0,0 h -42.794 c -0.384,0 -0.698,0.307 -0.698,0.682 v 16.194 c 0,0.375 0.314,0.682 0.698,0.682 H 0 c 0.384,0 0.697,-0.307 0.697,-0.682 V 0.682 C 0.697,0.307 0.384,0 0,0"
         style="fill:#000000;fill-opacity:1;fill-rule:nonzero;stroke:none"
         id="path297" />
    </g>
    <g
       id="g299"
       transform="matrix(0.35277777,0,0,-0.3527846,75.427387,42.057745)">
      <path
         d="m 0,0 c 0,0.663 0.436,0.932 0.953,0.932 h 3.265 c 3.377,0 4.783,-1.011 4.783,-2.875 0,-1.074 -0.582,-2.005 -1.778,-2.463 v -0.032 c 1.261,-0.363 2.149,-1.058 2.149,-2.653 0,-2.622 -2.424,-3.317 -5.106,-3.317 H 0.953 C 0.436,-10.408 0,-10.139 0,-9.476 Z m 4.395,-3.49 c 0.76,0 1.438,0.252 1.438,1.074 0,0.726 -0.646,0.884 -1.535,0.884 H 3.07 V -3.49 Z M 4.363,-7.96 c 1.454,0 1.858,0.49 1.858,1.169 0,0.916 -0.824,1.105 -1.729,1.105 H 3.07 V -7.96 Z"
         style="fill:#ffffff;fill-opacity:1;fill-rule:nonzero;stroke:none"
         id="path301" />
    </g>
    <g
       id="g303"
       transform="matrix(0.35277777,0,0,-0.3527846,79.258271,42.057745)">
      <path
         d="M 0,0 C 0,0.821 0.436,0.932 0.953,0.932 H 2.198 C 2.715,0.932 3.151,0.821 3.151,0 v -9.476 c 0,-0.821 -0.436,-0.932 -0.953,-0.932 H 0.953 C 0.436,-10.408 0,-10.297 0,-9.476 Z"
         style="fill:#ffffff;fill-opacity:1;fill-rule:nonzero;stroke:none"
         id="path305" />
    </g>
    <g
       id="g307"
       transform="matrix(0.35277777,0,0,-0.3527846,80.877239,44.966171)">
      <path
         d="M 0,0 1.115,0.616 C 1.551,0.869 1.777,0.711 2.052,0.426 2.214,0.253 2.424,0.142 2.698,0.142 c 0.518,0 0.744,0.332 0.744,1.043 v 7.059 c 0,0.821 0.436,0.932 0.953,0.932 h 1.261 c 0.517,0 0.953,-0.111 0.953,-0.932 V 1.785 c 0,-2.48 -1.002,-4.138 -3.765,-4.138 -1.083,0 -2.149,0.174 -3.054,1.153 C -0.533,-0.821 -0.663,-0.363 0,0"
         style="fill:#ffffff;fill-opacity:1;fill-rule:nonzero;stroke:none"
         id="path309" />
    </g>
    <g
       id="g311"
       transform="matrix(0.35277777,0,0,-0.3527846,84.172148,45.267027)">
      <path
         d="M 0,0 C 0,0.505 0.113,0.932 0.953,0.932 H 1.778 V 7.47 L 0.533,7.312 C -0.259,7.217 -0.372,7.454 -0.372,7.928 v 0.348 c 0,0.537 0.21,0.821 0.873,1.026 l 1.406,0.442 c 0.517,0.158 0.824,0.285 1.373,0.285 h 0.517 c 0.518,0 0.938,-0.095 0.938,-0.916 V 0.932 H 5.656 C 6.496,0.932 6.609,0.505 6.609,0 v -0.379 c 0,-0.505 -0.113,-0.932 -0.953,-0.932 H 0.953 C 0.113,-1.311 0,-0.884 0,-0.379 Z"
         style="fill:#ffff00;fill-opacity:1;fill-rule:nonzero;stroke:none"
         id="path313" />
    </g>
  </g>
</svg>
