<?xml version="1.0" encoding="UTF-8" standalone="no"?>
<!-- Created with Inkscape (http://www.inkscape.org/) -->

<svg
   width="36.483219mm"
   height="8.8808203mm"
   viewBox="0 0 36.483219 8.8808203"
   version="1.1"
   id="svg17697"
   inkscape:version="1.1.1 (c3084ef, 2021-09-22)"
   sodipodi:docname="denhaag.svg"
   xmlns:inkscape="http://www.inkscape.org/namespaces/inkscape"
   xmlns:sodipodi="http://sodipodi.sourceforge.net/DTD/sodipodi-0.dtd"
   xmlns="http://www.w3.org/2000/svg"
   xmlns:svg="http://www.w3.org/2000/svg">
  <sodipodi:namedview
     id="namedview17699"
     pagecolor="#ffffff"
     bordercolor="#666666"
     borderopacity="1.0"
     inkscape:pageshadow="2"
     inkscape:pageopacity="0.0"
     inkscape:pagecheckerboard="0"
     inkscape:document-units="mm"
     showgrid="false"
     fit-margin-top="0"
     fit-margin-left="0"
     fit-margin-right="0"
     fit-margin-bottom="0"
     inkscape:zoom="3.6233469"
     inkscape:cx="136.75202"
     inkscape:cy="36.5684"
     inkscape:window-width="1860"
     inkscape:window-height="1147"
     inkscape:window-x="60"
     inkscape:window-y="25"
     inkscape:window-maximized="0"
     inkscape:current-layer="layer1" />
  <defs
     id="defs17694" />
  <g
     inkscape:label="Layer 1"
     inkscape:groupmode="layer"
     id="layer1"
     transform="translate(-5.510129,-149.01647)">
    <path
       d="m 5.510129,157.89729 h 36.483219 v -8.88082 H 5.510129 Z"
       style="fill:#ffff00;fill-opacity:1;fill-rule:nonzero;stroke:none;stroke-width:0.352778"
       id="path147" />
    <g
       aria-label="070"
       id="text217"
       style="font-weight:800;font-size:5.66868px;stroke-width:0.352778">
      <path
         d="m 17.182298,154.8591 q -0.395811,0.52037 -1.134843,0.52037 -0.739032,0 -1.134843,-0.52037 -0.395811,-0.52313 -0.395811,-1.5611 0,-1.01582 0.384739,-1.5694 0.38474,-0.55635 1.145915,-0.55635 0.761175,0 1.145915,0.55635 0.384739,0.55358 0.384739,1.5694 0,1.03797 -0.395811,1.5611 z m -1.502975,-0.58126 q 0.107948,0.29617 0.368132,0.29617 0.260184,0 0.368132,-0.29617 0.107949,-0.29893 0.107949,-0.97984 0,-0.72242 -0.107949,-1.02689 -0.107948,-0.30447 -0.368132,-0.30447 -0.260184,0 -0.368132,0.30447 -0.107949,0.30447 -0.107949,1.02689 0,0.68091 0.107949,0.97984 z"
         id="path10615" />
      <path
         d="m 18.41125,155.00857 1.406099,-2.90631 h -1.566637 q -0.202058,0 -0.268488,-0.0858 -0.06366,-0.0858 -0.06366,-0.24911 v -0.19376 q 0,-0.16054 0.06366,-0.24634 0.06643,-0.0858 0.268488,-0.0858 h 2.399778 q 0.0692,0 0.110716,0.008 0.04152,0.006 0.0858,0.0332 0.04429,0.0249 0.06366,0.0858 0.02214,0.0581 0.02214,0.155 v 0.12456 q 0,0.19375 -0.11902,0.43733 l -1.309222,2.91737 q -0.0775,0.16885 -0.17161,0.23804 -0.09411,0.0692 -0.243577,0.0692 H 18.5967 q -0.08304,0 -0.141163,-0.0277 -0.05536,-0.0277 -0.08027,-0.0941 -0.02214,-0.0692 0.03598,-0.17991 z"
         id="path10617" />
      <path
         d="m 23.935999,154.8591 q -0.395811,0.52037 -1.134843,0.52037 -0.739032,0 -1.134843,-0.52037 -0.395811,-0.52313 -0.395811,-1.5611 0,-1.01582 0.384739,-1.5694 0.38474,-0.55635 1.145915,-0.55635 0.761176,0 1.145915,0.55635 0.38474,0.55358 0.38474,1.5694 0,1.03797 -0.395812,1.5611 z m -1.502975,-0.58126 q 0.107949,0.29617 0.368132,0.29617 0.260184,0 0.368132,-0.29617 0.107949,-0.29893 0.107949,-0.97984 0,-0.72242 -0.107949,-1.02689 -0.107948,-0.30447 -0.368132,-0.30447 -0.260183,0 -0.368132,0.30447 -0.107948,0.30447 -0.107948,1.02689 0,0.68091 0.107948,0.97984 z"
         id="path10619" />
    </g>
    <g
       id="g475"
       transform="matrix(0.35277777,0,0,-0.35277777,40.523146,156.55377)">
      <path
         d="m 0,0 h -42.794 c -0.384,0 -0.698,0.307 -0.698,0.682 v 16.194 c 0,0.375 0.314,0.682 0.698,0.682 H 0 c 0.384,0 0.698,-0.307 0.698,-0.682 V 0.682 C 0.698,0.307 0.384,0 0,0"
         style="fill:#000000;fill-opacity:1;fill-rule:nonzero;stroke:none"
         id="path477" />
    </g>
    <g
       id="g479"
       transform="matrix(0.35277777,0,0,-0.35277777,28.582642,151.77868)">
      <path
         d="m 0,0 c 0,0.663 0.436,0.932 0.953,0.932 h 3.265 c 3.377,0 4.783,-1.011 4.783,-2.875 0,-1.074 -0.582,-2.005 -1.778,-2.463 v -0.032 c 1.26,-0.363 2.149,-1.058 2.149,-2.653 0,-2.622 -2.424,-3.317 -5.106,-3.317 H 0.953 C 0.436,-10.408 0,-10.139 0,-9.476 Z m 4.395,-3.49 c 0.76,0 1.438,0.252 1.438,1.074 0,0.726 -0.646,0.884 -1.535,0.884 H 3.07 V -3.49 Z M 4.363,-7.96 c 1.454,0 1.858,0.49 1.858,1.169 0,0.916 -0.824,1.105 -1.729,1.105 H 3.07 V -7.96 Z"
         style="fill:#ffffff;fill-opacity:1;fill-rule:nonzero;stroke:none"
         id="path481" />
    </g>
    <g
       id="g483"
       transform="matrix(0.35277777,0,0,-0.35277777,32.413526,151.77868)">
      <path
         d="M 0,0 C 0,0.821 0.436,0.932 0.953,0.932 H 2.198 C 2.715,0.932 3.151,0.821 3.151,0 v -9.476 c 0,-0.821 -0.436,-0.932 -0.953,-0.932 H 0.953 C 0.436,-10.408 0,-10.297 0,-9.476 Z"
         style="fill:#ffffff;fill-opacity:1;fill-rule:nonzero;stroke:none"
         id="path485" />
    </g>
    <g
       id="g487"
       transform="matrix(0.35277777,0,0,-0.35277777,34.032494,154.68702)">
      <path
         d="M 0,0 1.115,0.616 C 1.551,0.869 1.777,0.711 2.052,0.426 2.214,0.253 2.424,0.142 2.698,0.142 c 0.518,0 0.744,0.332 0.744,1.043 v 7.059 c 0,0.821 0.436,0.932 0.953,0.932 h 1.261 c 0.517,0 0.953,-0.111 0.953,-0.932 V 1.785 c 0,-2.48 -1.002,-4.138 -3.765,-4.138 -1.083,0 -2.149,0.174 -3.054,1.153 C -0.533,-0.821 -0.663,-0.363 0,0"
         style="fill:#ffffff;fill-opacity:1;fill-rule:nonzero;stroke:none"
         id="path489" />
    </g>
    <g
       id="g491"
       transform="matrix(0.35277777,0,0,-0.35277777,37.327438,154.98786)">
      <path
         d="M 0,0 C 0,0.505 0.113,0.932 0.953,0.932 H 1.778 V 7.47 L 0.533,7.312 C -0.259,7.217 -0.372,7.454 -0.372,7.928 v 0.348 c 0,0.537 0.21,0.821 0.873,1.026 l 1.406,0.442 c 0.517,0.158 0.824,0.285 1.373,0.285 h 0.517 c 0.518,0 0.938,-0.095 0.938,-0.916 V 0.932 H 5.656 C 6.496,0.932 6.609,0.505 6.609,0 v -0.379 c 0,-0.505 -0.113,-0.932 -0.953,-0.932 H 0.953 C 0.113,-1.311 0,-0.884 0,-0.379 Z"
         style="fill:#ffff00;fill-opacity:1;fill-rule:nonzero;stroke:none"
         id="path493" />
    </g>
  </g>
</svg>
